{
  "type": 1,
  "identifier": "debug-filters-2020",
  "title": "Debug filters",
  "validity": 45,
  "buffer": 5,
  "group": "debugging",
  "created": null,
  "updated": null,
  "starting": null,
  "ending": null,
  "answer_links": [
    {
      "owner_question_id": 27,
      "target_question_id": 26,
      "target_answer_id": 49,
      "link_type": null,
      "value_operation": null,
      "value_limit": null
    },
    {
      "owner_question_id": 27,
      "target_question_id": 26,
      "target_answer_id": 50,
      "link_type": null,
      "value_operation": null,
      "value_limit": null
    },

    {
      "owner_question_id": 28,
      "target_question_id": 27,
      "target_answer_id": 51,
      "link_type": null,
      "value_operation": null,
      "value_limit": null
    },
    {
      "owner_question_id": 28,
      "target_question_id": 27,
      "target_answer_id": 52,
      "link_type": null,
      "value_operation": null,
      "value_limit": null
    }
  ],
  "questions": [
    {
      "id": 38,
      "type": 4,
      "density": 100,
      "shuffle": false,
      "link": 26,
      "text": "Jak bys hodnotil(a) kvalitu tvého spánku včera v noci?",
      "position": 1,
      "answers": [
        {
          "id": 81,
          "link": null,
          "exclusions": null,
          "text": "Velmi špatná"
        },
        {
          "id": 82,
          "link": null,
          "exclusions": null,
          "text": "Velmi dobrá"
        }
      ]
    },
    {
      "id": 26,
      "type": 3,
      "density": null,
      "shuffle": false,
      "link": null,
      "text": "Byl tvůj telefon v noci vypnutý?",
      "position": 2,
      "answers": [
        {
          "id": 48,
          "link": 27,
          "exclusions": null,
          "text": "Ano"
        },
        {
          "id": 49,
          "link": 29,
          "exclusions": null,
          "text": "Ne"
        },
        {
          "id": 50,
          "link": null,
          "exclusions": null,
          "text": "Nevím"
        }
      ]
    },
    {
      "id": 27,
      "type": 3,
      "density": null,
      "shuffle": false,
      "link": null,
      "text": "Proč byl telefon vypnutý?",
      "position": 3,
      "answers": [
        {
          "id": 51,
          "link": null,
          "exclusions": null,
          "text": "Telefon si na noc vypínám"
        },
        {
          "id": 52,
          "link": null,
          "exclusions": null,
          "text": "Došla mi baterie"
        },
        {
          "id": 53,
          "link": 28,
          "exclusions": null,
          "text": "Jiný důvod"
        }
      ]
    },
    {
      "id": 28,
      "type": 1,
      "density": null,
      "shuffle": false,
      "link": null,
      "text": "Uveďte důvod",
      "position": 4,
      "answers": []
    },
    {
      "id": 29,
      "type": 3,
      "density": null,
      "shuffle": false,
      "link": 30,
      "text": "Vypl/a sis na noc sběr screenů?",
      "position": 5,
      "answers": [
        {
          "id": 54,
          "link": null,
          "exclusions": null,
          "text": "Ano"
        },
        {
          "id": 55,
          "link": null,
          "exclusions": null,
          "text": "Ne"
        },
        {
          "id": 56,
          "link": null,
          "exclusions": null,
          "text": "Nevím"
        }
      ]
    },
    {
      "id": 30,
      "type": 3,
      "density": null,
      "shuffle": false,
      "link": null,
      "text": "Byl tvůj telefon v noci připojený na internet?",
      "position": 6,
      "answers": [
        {
          "id": 57,
          "link": null,
          "exclusions": null,
          "text": "Ano"
        },
        {
          "id": 58,
          "link": null,
          "exclusions": null,
          "text": "Ne"
        },
        {
          "id": 59,
          "link": null,
          "exclusions": null,
          "text": "Nevím"
        }
      ]
    }
  ],
  "questionnaire_id": 3,
  "people_questionnaire_id": null,
  "silence_delay": 15
}