{
  "questionnaire_id": 39,
  "buffer": 60,
  "validity": 720,
  "configurable": false,
  "type": 4,
  "title": "Debug Checkview",
  "identifier": "debug-checkview",
  "questions": [
    {
      "answers": [
        {
          "exclusions": [
            253
          ],
          "id": 185,
          "text": "Problém s rodinou"
        },
        {
          "exclusions": [
            253
          ],
          "id": 186,
          "text": "Problém s kamarády či spolužáky"
        },
        {
          "exclusions": [
            253
          ],
          "id": 187,
          "text": "Problém se školou"
        },
        {
          "exclusions": [
            253
          ],
          "id": 188,
          "text": "Cítím se ve stresu z jiného důvodu"
        },
        {
          "exclusions": [
            188,
            186,
            185,
            187
          ],
          "id": 253,
          "text": "Nic mě nestresovalo"
        }
      ],
      "id": 316,
      "position": 1,
      "shuffle": false,
      "text": "Za poslední hodinu, obtěžovaly Tě či stresovaly tyto situace? (vyber všechny, které se Tě týkají)",
      "type": 2
    },
    {
      "answers": [
        {
          "id": 348,
          "text": "Ano"
        },
        {
          "id": 349,
          "text": "ne"
        }
      ],
      "id": 389,
      "position": 2,
      "shuffle": false,
      "text": "Nyní se zeptáme několik otázek ohledně kontroly rodičů nad tím, jak používáš mobil.  Za posledních 14 dní rodiče nějak omezovali můj čas trávený na mobilním telefonu, např. celkový čas denně nebo používání telefonu večer.",
      "type": 3
    }

  ]
}