{
  "buffer": 60,
  "configurable": true,
  "title": "Ranní dotazník",
  "type": 1,
  "validity": 2,
  "questionnaire_id": 34,
  "identifier": "debug-ranni-dotaznik-2021",
  "questions": [

    {
      "answers": [
        {
          "exclusions": [
            253
          ],
          "id": 185,
          "text": "Problém s rodinou"
        },
        {
          "exclusions": [
            253
          ],
          "id": 186,
          "text": "Problém s kamarády či spolužáky"
        },
        {
          "exclusions": [
            253
          ],
          "id": 187,
          "text": "Problém se školou"
        },
        {
          "exclusions": [
            253
          ],
          "id": 188,
          "text": "Cítím se ve stresu z jiného důvodu"
        },
        {
          "exclusions": [
            188,
            186,
            185,
            187
          ],
          "id": 253,
          "text": "Nic mě nestresovalo"
        }
      ],
      "id": 283,
      "position": 10,
      "shuffle": false,
      "text": "Za poslední hodinu, obtěžovaly Tě či stresovaly tyto situace? (vyber všechny, které se Tě týkají)",
      "type": 2
    },
    {
      "answers": [
        {
          "id": 189,
          "text": "vůbec"
        },
        {
          "id": 190,
          "text": "velmi"
        }
      ],
      "density": 100,
      "filters": [
        {
          "target_answer_id": 185,
          "owner_question_id": 267,
          "target_question_id": 283
        }
      ],
      "id": 267,
      "position": 11,
      "shuffle": false,
      "text": "Jak moc Tě za poslední hodinu obtěžovalo či stresovalo… - Problém s rodinou",
      "type": 4
    },
    {
      "answers": [
        {
          "id": 191,
          "text": "vůbec"
        },
        {
          "id": 192,
          "text": "velmi"
        }
      ],
      "density": 100,
      "filters": [
        {
          "target_answer_id": 186,
          "owner_question_id": 285,
          "target_question_id": 283
        }
      ],
      "id": 285,
      "position": 12,
      "shuffle": false,
      "text": "Jak moc Tě za poslední hodinu obtěžovalo či stresovalo… - Problém s kamarády či spolužáky",
      "type": 4
    },
    {
      "answers": [
        {
          "id": 193,
          "text": "vůbec"
        },
        {
          "id": 194,
          "text": "velmi"
        }
      ],
      "density": 100,
      "filters": [
        {
          "target_answer_id": 187,
          "owner_question_id": 270,
          "target_question_id": 283
        }
      ],
      "id": 270,
      "position": 13,
      "shuffle": false,
      "text": "Jak moc Tě za poslední hodinu obtěžovalo či stresovalo… - Problém se školou",
      "type": 4
    },
    {
      "answers": [
        {
          "id": 195,
          "text": "vůbec"
        },
        {
          "id": 196,
          "text": "velmi"
        }
      ],
      "density": 100,
      "filters": [
        {
          "target_answer_id": 188,
          "owner_question_id": 279,
          "target_question_id": 283
        }
      ],
      "id": 279,
      "position": 14,
      "shuffle": false,
      "text": "Jak moc Tě za poslední hodinu obtěžovalo či stresovalo… - Cítím se ve stresu z jiného důvodu",
      "type": 4
    }
  ]
}